%YAML 1.1
%TAG !u! tag:unity3d.com,2011:
--- !u!1045 &1
EditorBuildSettings:
  m_ObjectHideFlags: 0
  serializedVersion: 2
  m_Scenes:
  - enabled: 1
    path: Assets/Torben/Scenes/Onboarding.unity
    guid: f6ada648e6a9e3446940cfed7b4a6f03
  - enabled: 1
    path: Assets/Torben/Scenes/RoleSelection.unity
    guid: b2afbe5f10242bd4087cd77fc2df4a69
  - enabled: 1
    path: Assets/Torben/Scenes/ScholarRiddle.unity
    guid: 04811edfa203bba4b8df317a83bf4344
  - enabled: 1
    path: Assets/Lisa/Scenes/ExplorerRiddle.unity
    guid: ffffdff7ea663e24699bcccd867d3fda
  - enabled: 0
    path: Assets/Torben/Old/Menu.unity
    guid: db2ab25f2530a514cbc8d920a241a513
  - enabled: 0
    path: 
    guid: 00000000000000000000000000000000
  - enabled: 0
    path: Assets/Lisa/Scenes/ExplorerOld.unity
    guid: 47fff68fe7079fc429066331596878df
  m_configObjects:
    Unity.XR.WindowsMR.Settings: {fileID: 11400000, guid: 744b813df90924c169af73489b8325de,
      type: 2}
    UnityEditor.XR.ARCore.ARCoreSettings: {fileID: 11400000, guid: 29e3be5ddb4a1354d9a23811125baf51,
      type: 2}
    UnityEditor.XR.ARKit.ARKitSettings: {fileID: 11400000, guid: de8a8e4f987434338a4b1062feb8d069,
      type: 2}
    com.unity.xr.arcore.PlayerSettings: {fileID: 11400000, guid: c2f7b8d7c0bff4d10874cbcf3f24af78,
      type: 2}
    com.unity.xr.arkit.PlayerSettings: {fileID: 11400000, guid: b27ec7d82a91a48e69fd689ad6808e5e,
      type: 2}
    com.unity.xr.magicleap.magic_leap_settings: {fileID: 11400000, guid: 1eb95d77acb39444e8cf44313496a874,
      type: 2}
    com.unity.xr.management.loader_settings: {fileID: 11400000, guid: 58f40b12bbc864f3c96c6505a9a1e1e3,
      type: 2}
