%YAML 1.1
%TAG !u! tag:unity3d.com,2011:
--- !u!114 &11400000
MonoBehaviour:
  m_ObjectHideFlags: 0
  m_CorrespondingSourceObject: {fileID: 0}
  m_PrefabInstance: {fileID: 0}
  m_PrefabAsset: {fileID: 0}
  m_GameObject: {fileID: 0}
  m_Enabled: 1
  m_EditorHideFlags: 0
  m_Script: {fileID: 11500000, guid: 848409ee8ba454f42a5ddff137688a27, type: 3}
  m_Name: RILpoisonPlant
  m_EditorClassIdentifier: 
  m_GuidLow: 5539885634307590938
  m_GuidHigh: 15141615489093498553
  m_Images:
  - m_SerializedGuid:
      m_GuidLow: 5555395466526385949
      m_GuidHigh: 14828264732985889203
    m_SerializedTextureGuid:
      m_GuidLow: 18358002932855538823
      m_GuidHigh: 11529688292231500200
    m_Size: {x: 0.1, y: 0.1}
    m_SpecifySize: 1
    m_Name: PoisonPlant
    m_Texture: {fileID: 2800000, guid: 0e6f0487ba67fec4a85170356aae01a0, type: 3}
  - m_SerializedGuid:
      m_GuidLow: 5650999484094160569
      m_GuidHigh: 314973404938057407
    m_SerializedTextureGuid:
      m_GuidLow: 17876169148717757134
      m_GuidHigh: 6641184430706965032
    m_Size: {x: 0.1, y: 0.1}
    m_SpecifySize: 1
    m_Name: SeedImage
    m_Texture: {fileID: 2800000, guid: f61e72cee920f81428ba24a00d3a2a5c, type: 3}
  - m_SerializedGuid:
      m_GuidLow: 5618419237708929142
      m_GuidHigh: 17811343410376649134
    m_SerializedTextureGuid:
      m_GuidLow: 16759095998208484318
      m_GuidHigh: 5426996672911469451
    m_Size: {x: 0.1, y: 0.10125}
    m_SpecifySize: 1
    m_Name: TestImage
    m_Texture: {fileID: 2800000, guid: 51e323de4504e8948b6b1d76b890504b, type: 3}
